mrgsolve: Simulate from ODE-Based Models
…
Remember that you can get a data frame directly back from mrgsim() with the output argument

mrgsim(mod, ev(amt = 100), output = "df") %>% class()

[1] "data.frame"

This is what you’ll want to do most of the time when doing larger simulations.

6.4.1 dplyr verbs

You can pipe simulated output directly to several dplyr verbs, for example filter() or mutate().

mod %>% mrgsim(ev(amt = 100)) %>% mutate(rep = 1)

# A tibble: 242 × 6
      ID  time    EV  CENT    CP   rep
   <dbl> <dbl> <dbl> <dbl> <dbl> <dbl>
 1     1   0     0    0    0         1
 2     1   0   100    0    0         1
 3     1   0.1  90.5  9.49 0.475     1
 4     1   0.2  81.9 18.0  0.902     1
 5     1   0.3  74.1 25.7  1.29      1
 6     1   0.4  67.0 32.6  1.63      1
 7     1   0.5  60.7 38.8  1.94      1
 8     1   0.6  54.9 44.4  2.22      1
 9     1   0.7  49.7 49.4  2.47      1
10     1   0.8  44.9 53.8  2.69      1
# ℹ 232 more rows
…
